{
    "prepare_queue": {
        "installed": [],
        "uninstalled": []
    },
    "config_munge": {
        "files": {
            "res/xml/config.xml": {
                "parents": {
                    "/*": [
                        {
                            "xml": "<feature name=\"Keyboard\"><param name=\"android-package\" value=\"com.ionic.keyboard.IonicKeyboard\" /><param name=\"onload\" value=\"true\" /></feature>",
                            "count": 1
                        },
                        {
                            "xml": "<feature name=\"AdMob\"><param name=\"android-package\" value=\"com.rjfun.cordova.admob.AdMobPlugin\" /><param name=\"onload\" value=\"true\" /></feature>",
                            "count": 1
                        },
                        {
                            "xml": "<feature name=\"Device\"><param name=\"android-package\" value=\"org.apache.cordova.device.Device\" /></feature>",
                            "count": 1
                        },
                        {
                            "xml": "<feature name=\"Notification\"><param name=\"android-package\" value=\"org.apache.cordova.dialogs.Notification\" /></feature>",
                            "count": 1
                        },
                        {
                            "xml": "<feature name=\"File\"><param name=\"android-package\" value=\"org.apache.cordova.file.FileUtils\" /><param name=\"onload\" value=\"true\" /></feature>",
                            "count": 1
                        },
                        {
                            "xml": "<feature name=\"FileTransfer\"><param name=\"android-package\" value=\"org.apache.cordova.filetransfer.FileTransfer\" /></feature>",
                            "count": 1
                        },
                        {
                            "xml": "<feature name=\"InAppBrowser\"><param name=\"android-package\" value=\"org.apache.cordova.inappbrowser.InAppBrowser\" /></feature>",
                            "count": 1
                        },
                        {
                            "xml": "<feature name=\"Media\"><param name=\"android-package\" value=\"org.apache.cordova.media.AudioHandler\" /></feature>",
                            "count": 1
                        },
                        {
                            "xml": "<feature name=\"SocialMessage\"><param name=\"android-package\" value=\"uk.co.ilee.socialmessage.SocialMessage\" /></feature>",
                            "count": 1
                        },
                        {
                            "xml": "<feature name=\"SplashScreen\"><param name=\"android-package\" value=\"org.apache.cordova.splashscreen.SplashScreen\" /><param name=\"onload\" value=\"true\" /></feature>",
                            "count": 1
                        },
                        {
                            "xml": "<feature name=\"Whitelist\"><param name=\"android-package\" value=\"org.apache.cordova.whitelist.WhitelistPlugin\" /><param name=\"onload\" value=\"true\" /></feature>",
                            "count": 1
                        },
                        {
                            "xml": "<feature name=\"BackgroundMode\"><param name=\"android-package\" value=\"de.appplant.cordova.plugin.background.BackgroundMode\" /></feature>",
                            "count": 1
                        },
                        {
                            "xml": "<preference name=\"KeepRunning\" value=\"true\" />",
                            "count": 1
                        },
                        {
                            "xml": "<feature name=\"NetworkStatus\"><param name=\"android-package\" value=\"org.apache.cordova.networkinformation.NetworkManager\" /></feature>",
                            "count": 1
                        },
                        {
                            "xml": "<feature name=\"md5chksum\"><param name=\"android-package\" value=\"de.fastr.phonegap.plugins.md5chksum\" /></feature>",
                            "count": 1
                        },
                        {
                            "xml": "<feature name=\"SocialSharing\"><param name=\"android-package\" value=\"nl.xservices.plugins.SocialSharing\" /></feature>",
                            "count": 1
                        },
                        {
                            "xml": "<preference name=\"webView\" value=\"org.crosswalk.engine.XWalkWebViewEngine\" />",
                            "count": 1
                        },
                        {
                            "xml": "<preference default=\"15+\" name=\"xwalkVersion\" />",
                            "count": 1
                        },
                        {
                            "xml": "<preference default=\"--disable-pull-to-refresh-effect\" name=\"xwalkCommandLine\" />",
                            "count": 1
                        },
                        {
                            "xml": "<preference default=\"embedded\" name=\"xwalkMode\" />",
                            "count": 1
                        },
                        {
                            "xml": "<preference default=\"true\" name=\"xwalkMultipleApk\" />",
                            "count": 1
                        }
                    ],
                    "/widget": [
                        {
                            "xml": "<feature name=\"Zip\"><param name=\"android-package\" value=\"org.apache.cordova.Zip\" /></feature>",
                            "count": 1
                        }
                    ]
                }
            },
            "AndroidManifest.xml": {
                "parents": {
                    "/manifest/application": [
                        {
                            "xml": "<activity android:configChanges=\"keyboard|keyboardHidden|orientation|screenLayout|uiMode|screenSize|smallestScreenSize\" android:name=\"com.google.android.gms.ads.AdActivity\" android:theme=\"@android:style/Theme.Translucent\" />",
                            "count": 1
                        },
                        {
                            "xml": "<service android:name=\"de.appplant.cordova.plugin.background.ForegroundService\" />",
                            "count": 1
                        }
                    ],
                    "/*": [
                        {
                            "xml": "<uses-permission android:name=\"android.permission.INTERNET\" />",
                            "count": 1
                        },
                        {
                            "xml": "<uses-permission android:name=\"android.permission.ACCESS_NETWORK_STATE\" />",
                            "count": 3
                        },
                        {
                            "xml": "<uses-permission android:name=\"android.permission.WRITE_EXTERNAL_STORAGE\" />",
                            "count": 5
                        },
                        {
                            "xml": "<uses-permission android:name=\"android.permission.RECORD_AUDIO\" />",
                            "count": 1
                        },
                        {
                            "xml": "<uses-permission android:name=\"android.permission.MODIFY_AUDIO_SETTINGS\" />",
                            "count": 1
                        },
                        {
                            "xml": "<uses-permission android:name=\"android.permission.READ_PHONE_STATE\" />",
                            "count": 1
                        },
                        {
                            "xml": "<uses-permission android:name=\"android.permission.ACCESS_WIFI_STATE\" />",
                            "count": 1
                        }
                    ]
                }
            }
        }
    },
    "installed_plugins": {
        "com.ionic.keyboard": {
            "PACKAGE_NAME": "com.Max.Relax"
        },
        "cordova-plugin-admobpro": {
            "PACKAGE_NAME": "com.Max.Relax"
        },
        "cordova-plugin-console": {
            "PACKAGE_NAME": "com.Max.Relax"
        },
        "cordova-plugin-device": {
            "PACKAGE_NAME": "com.Max.Relax"
        },
        "cordova-plugin-dialogs": {
            "PACKAGE_NAME": "com.Max.Relax"
        },
        "cordova-plugin-file": {
            "PACKAGE_NAME": "com.Max.Relax"
        },
        "cordova-plugin-file-transfer": {
            "PACKAGE_NAME": "com.Max.Relax"
        },
        "cordova-plugin-inappbrowser": {
            "PACKAGE_NAME": "com.Max.Relax"
        },
        "cordova-plugin-media": {
            "PACKAGE_NAME": "com.Max.Relax"
        },
        "cordova-plugin-social-message": {
            "PACKAGE_NAME": "com.Max.Relax"
        },
        "cordova-plugin-splashscreen": {
            "PACKAGE_NAME": "com.Max.Relax"
        },
        "cordova-plugin-whitelist": {
            "PACKAGE_NAME": "com.Max.Relax"
        },
        "de.appplant.cordova.plugin.background-mode": {
            "PACKAGE_NAME": "com.Max.Relax"
        },
        "de.fastr.phonegap.plugins.downloader": {
            "PACKAGE_NAME": "com.Max.Relax"
        },
        "nl.x-services.plugins.socialsharing": {
            "PACKAGE_NAME": "com.Max.Relax"
        },
        "cordova-plugin-crosswalk-webview": {
            "PACKAGE_NAME": "com.Max.Relax"
        }
    },
    "dependent_plugins": {
        "cordova-plugin-extension": {
            "PACKAGE_NAME": "com.Max.Relax"
        },
        "org.apache.cordova.network-information": {
            "PACKAGE_NAME": "com.Max.Relax"
        },
        "org.chromium.zip": {
            "PACKAGE_NAME": "com.Max.Relax"
        },
        "de.fastr.phonegap.plugins.md5chksum": {
            "PACKAGE_NAME": "com.Max.Relax"
        }
    }
}